{"images":[{"id":44619784,"name":"2051.2.0 (beta)","distribution":"CoreOS","slug":"coreos-beta","public":true,"regions":["nyc1","sfo1","nyc2","ams2","sgp1","lon1","nyc3","ams3","fra1","tor1","sfo2","blr1"],"created_at":"2019-03-12T15:15:28Z","min_disk_size":20,"type":"snapshot","size_gigabytes":0.45,"description":null,"tags":[],"status":"available","error_message":""},{"id":16376426,"name":"Cassandra on 14.04","distribution":"Ubuntu","slug":"cassandra","public":true,"regions":["nyc1","sfo1","nyc2","ams2","sgp1","lon1","nyc3","ams3","fra1","tor1","sfo2","blr1"],"created_at":"2016-03-21T04:25:45Z","min_disk_size":30,"type":"snapshot","size_gigabytes":0.59,"description":"","tags":[],"status":"available","error_message":""},{"id":24081356,"name":"10.3 x64 zfs","distribution":"FreeBSD","slug":"freebsd-10-3-x64-zfs","public":true,"regions":["nyc1","sfo1","nyc2","ams2","sgp1","lon1","nyc3","ams3","fra1","tor1","sfo2","blr1"],"created_at":"2017-04-10T23:57:15Z","min_disk_size":20,"type":"snapshot","size_gigabytes":1.0,"description":"Freebsd freebsd-10-3 x64 20170410 zfs","tags":[],"status":"available","error_message":""},{"id":24081552,"name":"10.3 x64","distribution":"FreeBSD","slug":"freebsd-10-3-x64","public":true,"regions":["nyc1","sfo1","nyc2","ams2","sgp1","lon1","nyc3","ams3","fra1","tor1","sfo2","blr1"],"created_at":"2017-04-11T00:03:44Z","min_disk_size":20,"type":"snapshot","size_gigabytes":0.95,"description":"10.3 x64 20170412","tags":[],"status":"available","error_message":""},{"id":25256991,"name":"14.04.5 x32","distribution":"Ubuntu","slug":"ubuntu-14-04-x32-do","public":true,"regions":["nyc1","sfo1","nyc2","ams2","sgp1","lon1","nyc3","ams3","fra1","tor1","sfo2","blr1"],"created_at":"2017-05-31T19:23:18Z","min_disk_size":20,"type":"snapshot","size_gigabytes":0.43,"description":"14.04.x32 DO Build","tags":[],"status":"available","error_message":""},{"id":26671396,"name":"11.1 x64","distribution":"FreeBSD","slug":"freebsd-11-1-x64","public":true,"regions":["nyc1","sfo1","nyc2","ams2","sgp1","lon1","nyc3","ams3","fra1","tor1","sfo2","blr1"],"created_at":"2017-07-29T21:47:10Z","min_disk_size":20,"type":"snapshot","size_gigabytes":0.6899999999999999,"description":"11.1 x64 UFS","tags":[],"status":"available","error_message":""},{"id":26671397,"name":"11.1 x64 ZFS","distribution":"FreeBSD","slug":"freebsd-11-1-x64-zfs","public":true,"regions":["nyc1","sfo1","nyc2","ams2","sgp1","lon1","nyc3","ams3","fra1","tor1","sfo2","blr1"],"created_at":"2017-07-29T21:47:21Z","min_disk_size":20,"type":"snapshot","size_gigabytes":0.7,"description":"11.1 x64 ZFS","tags":[],"status":"available","error_message":""},{"id":28282122,"name":"10.4 x64 ZFS","distribution":"FreeBSD","slug":"freebsd-10-4-x64-zfs","public":true,"regions":["nyc1","sfo1","nyc2","ams2","sgp1","lon1","nyc3","ams3","fra1","tor1","sfo2","blr1"],"created_at":"2017-10-03T18:24:11Z","min_disk_size":20,"type":"snapshot","size_gigabytes":0.75,"description":"10.4 x64 ZFS 20171003","tags":[],"status":"available","error_message":""},{"id":28282143,"name":"10.4 x64","distribution":"FreeBSD","slug":"freebsd-10-4-x64","public":true,"regions":["nyc1","sfo1","nyc2","ams2","sgp1","lon1","nyc3","ams3","fra1","tor1","sfo2","blr1"],"created_at":"2017-10-03T18:27:29Z","min_disk_size":20,"type":"snapshot","size_gigabytes":0.72,"description":"10.4 x64 UFS 20171003","tags":[],"status":"available","error_message":""},{"id":28706758,"name":"MachineLearning on 16.04-20171020","distribution":"Ubuntu","slug":null,"public":true,"regions":["nyc1","sfo1","nyc2","ams2","sgp1","lon1","nyc3","ams3","fra1","tor1","sfo2","blr1"],"created_at":"2017-10-20T19:25:07Z","min_disk_size":20,"type":"snapshot","size_gigabytes":1.87,"description":"MachineLearning on 16.04-20171020 20171020","tags":[],"status":"available","error_message":""},{"id":29492039,"name":"27 x64","distribution":"Fedora","slug":"fedora-27-x64","public":true,"regions":["nyc1","sfo1","nyc2","ams2","sgp1","lon1","nyc3","ams3","fra1","tor1","sfo2","blr1"],"created_at":"2017-11-20T16:05:14Z","min_disk_size":20,"type":"snapshot","size_gigabytes":0.23,"description":"27 x64","tags":[],"status":"available","error_message":""},{"id":29493174,"name":"27 x64 Atomic","distribution":"Fedora Atomic","slug":null,"public":true,"regions":["nyc1","sfo1","nyc2","ams2","sgp1","lon1","nyc3","ams3","fra1","tor1","sfo2","blr1"],"created_at":"2017-11-20T19:05:07Z","min_disk_size":20,"type":"snapshot","size_gigabytes":0.67,"description":"27 x64 Atomic","tags":[],"status":"available","error_message":""},{"id":31354013,"name":"6.9 x32","distribution":"CentOS","slug":"centos-6-x32","public":true,"regions":["nyc1","sfo1","nyc2","ams2","sgp1","lon1","nyc3","ams3","fra1","tor1","sfo2","blr1"],"created_at":"2018-01-30T12:26:21Z","min_disk_size":20,"type":"snapshot","size_gigabytes":0.33,"description":"Centos 6.9 x32 20180130","tags":[],"status":"available","error_message":""},{"id":31650475,"name":"14.04.5 LTS x64 HWE","distribution":"Ubuntu","slug":"ubuntu-14-04-x64-do","public":true,"regions":["nyc1","sfo1","nyc2","ams2","sgp1","lon1","nyc3","ams3","fra1","tor1","sfo2","blr1"],"created_at":"2018-02-09T18:16:52Z","min_disk_size":20,"type":"snapshot","size_gigabytes":0.33,"description":"14.04.5 LTS x64 20190209 DigitalOcean HWE Build","tags":[],"status":"available","error_message":""},{"id":31734516,"name":"8.10 x64","distribution":"Debian","slug":"debian-8-x64","public":true,"regions":["nyc1","sfo1","nyc2","ams2","sgp1","lon1","nyc3","ams3","fra1","tor1","sfo2","blr1"],"created_at":"2018-02-12T05:22:50Z","min_disk_size":20,"type":"snapshot","size_gigabytes":0.45,"description":"Debian 8.10 x64 20180212","tags":[],"status":"available","error_message":""},{"id":31737616,"name":"8.10 x32","distribution":"Debian","slug":"debian-8-x32","public":true,"regions":["nyc1","sfo1","nyc2","ams2","sgp1","lon1","nyc3","ams3","fra1","tor1","sfo2","blr1"],"created_at":"2018-02-12T09:03:57Z","min_disk_size":20,"type":"snapshot","size_gigabytes":0.45,"description":"Debian 8.10 x32 20180212","tags":[],"status":"available","error_message":""},{"id":33948356,"name":"28 x64","distribution":"Fedora","slug":"fedora-28-x64","public":true,"regions":["nyc1","sfo1","nyc2","ams2","sgp1","lon1","nyc3","ams3","fra1","tor1","sfo2","blr1"],"created_at":"2018-05-01T16:08:07Z","min_disk_size":20,"type":"snapshot","size_gigabytes":0.27,"description":"28 x64","tags":[],"status":"available","error_message":""},{"id":34114584,"name":"28 x64 Atomic","distribution":"Fedora Atomic","slug":"fedora-28-x64-atomic","public":true,"regions":["nyc1","sfo1","nyc2","ams2","sgp1","lon1","nyc3","ams3","fra1","tor1","sfo2","blr1"],"created_at":"2018-05-07T01:40:50Z","min_disk_size":20,"type":"snapshot","size_gigabytes":0.67,"description":"28 x64 Atomic","tags":[],"status":"available","error_message":""},{"id":34468562,"name":"cloudbench-nullworkload-on-1604.051818-1","distribution":"Ubuntu","slug":null,"public":true,"regions":["nyc1","sfo1","nyc2","ams2","sgp1","lon1","nyc3","ams3","fra1","tor1","sfo2","blr1"],"created_at":"2018-05-18T22:20:08Z","min_disk_size":20,"type":"snapshot","size_gigabytes":1.78,"description":"","tags":[],"status":"available","error_message":""},{"id":34468665,"name":"cloudbench-ycsb-cassandra-on-1604.051818-1","distribution":"Ubuntu","slug":null,"public":true,"regions":["nyc1","sfo1","nyc2","ams2","sgp1","lon1","nyc3","ams3","fra1","tor1","sfo2","blr1"],"created_at":"2018-05-18T22:22:11Z","min_disk_size":20,"type":"snapshot","size_gigabytes":2.26,"description":"","tags":[],"status":"available","error_message":""}],"links":{"pages":{"last":"https://api.digitalocean.com/v2/images?page=5","next":"https://api.digitalocean.com/v2/images?page=2"}},"meta":{"total":83}}